{
	"/api": {
		"target": "http://localhost:81",
		"secure": false,
		"pathRewrite": {
			"^/api": ""
		},
		"logLevel": "debug"
	},
	"/app": {
		"target": "http://localhost:7980",
		"secure": false,
		"pathRewrite": {
			"^/app": ""
		},
		"logLevel": "debug"
	},
	"/ws": {
		"target": "http://localhost:8181",
		"secure": false,
		"ws":true,
		"pathRewrite": {
			"^/ws": ""
		},
		"logLevel": "debug"
	}
}